{
    "workbench.iconTheme": "vscode-icons",
    "sqltools.connections": [
        {
            "askForPassword": true,
            "connectionTimeout": 30,
            "database": "pgis",
            "dialect": "PostgreSQL",
            "name": "SRV IGEO 114",
            "port": 5432,
            "server": "172.25.131.114",
            "username": "kyle.roberto"
        },
        {
            "connectionTimeout": 30,
            "database": "pgis",
            "dialect": "PostgreSQL",
            "name": "SRV PGIS 220",
            "password": "escaravelho42",
            "port": 5432,
            "server": "172.25.131.220",
            "username": "kyle.roberto"
        }
    ],
    "explorer.confirmDelete": false,
    "terminal.external.linuxExec": "gnome-terminal",
    "window.zoomLevel": 0,
    "terminal.integrated.fontFamily": "Ubuntu Mono",
    "terminal.integrated.fontSize": 18
}